exam1 – COMP/STAT212 Portfolio
…
Code
fun_dates <- mdy('1-1-2025') + 0:365
 # ifelse(fun_dates < today(), fun_dates + years(), fun_dates) # Bad: converts dates to integers
 # if_else(fun_dates < today(), fun_dates + years(), fun_dates) # Good: keeps dates as dates

Code
data(diamonds)
diamonds <- diamonds |> 
    slice_head(n = 1000)

# Subset to diamonds that are less than 400 dollars or more than 10000 dollars.
diamonds |> 
    filter(price < 400 | price > 10000)

# A tibble: 30 × 10
   carat cut       color clarity depth table price     x     y     z
   <dbl> <ord>     <ord> <ord>   <dbl> <dbl> <int> <dbl> <dbl> <dbl>
 1  0.23 Ideal     E     SI2      61.5    55   326  3.95  3.98  2.43
 2  0.21 Premium   E     SI1      59.8    61   326  3.89  3.84  2.31
 3  0.23 Good      E     VS1      56.9    65   327  4.05  4.07  2.31
 4  0.29 Premium   I     VS2      62.4    58   334  4.2   4.23  2.63
 5  0.31 Good      J     SI2      63.3    58   335  4.34  4.35  2.75
 6  0.24 Very Good J     VVS2     62.8    57   336  3.94  3.96  2.48
 7  0.24 Very Good I     VVS1     62.3    57   336  3.95  3.98  2.47
 8  0.26 Very Good H     SI1      61.9    55   337  4.07  4.11  2.53
 9  0.22 Fair      E     VS2      65.1    61   337  3.87  3.78  2.49
10  0.23 Very Good H     VS1      59.4    61   338  4     4.05  2.39
# ℹ 20 more rows

Code
# Subset to diamonds that are between 500 and 600 dollars (inclusive).
diamonds |> 
    filter(price >= 500, price <= 600)

# A tibble: 90 × 10
   carat cut       color clarity depth table price     x     y     z
   <dbl> <ord>     <ord> <ord>   <dbl> <dbl> <int> <dbl> <dbl> <dbl>
 1  0.35 Ideal     I     VS1      60.9  57     552  4.54  4.59  2.78
 2  0.3  Premium   D     SI1      62.6  59     552  4.23  4.27  2.66
 3  0.3  Ideal     D     SI1      62.5  57     552  4.29  4.32  2.69
 4  0.3  Ideal     D     SI1      62.1  56     552  4.3   4.33  2.68
 5  0.42 Premium   I     SI2      61.5  59     552  4.78  4.84  2.96
 6  0.28 Ideal     G     VVS2     61.4  56     553  4.19  4.22  2.58
 7  0.32 Ideal     I     VVS1     62    55.3   553  4.39  4.42  2.73
 8  0.31 Very Good G     SI1      63.3  57     553  4.33  4.3   2.73
 9  0.31 Premium   G     SI1      61.8  58     553  4.35  4.32  2.68
10  0.24 Premium   E     VVS1     60.7  58     553  4.01  4.03  2.44
# ℹ 80 more rows
…
Code
# Create two new categorized versions of price by looking up the documentation for if_else() and case_when():
# price_cat1: “low” if price is less than 500 and “high” otherwise
# price_cat2: “low” if price is less than 500, “medium” if price is between 500 and 1000 dollars inclusive, and “high” otherwise.
diamonds |> 
    mutate(
        price_cat1 = if_else(price < 500, "low", "high"),
        price_cat2 = case_when(
            price < 500 ~ "low",
            price >= 500 & price <= 1000 ~ "medium",
            price > 1000 ~ "high"
        )
    )

# A tibble: 1,000 × 12
   carat cut       color clarity depth table price     x     y     z price_cat1
   <dbl> <ord>     <ord> <ord>   <dbl> <dbl> <int> <dbl> <dbl> <dbl> <chr>     
 1  0.23 Ideal     E     SI2      61.5    55   326  3.95  3.98  2.43 low       
 2  0.21 Premium   E     SI1      59.8    61   326  3.89  3.84  2.31 low       
 3  0.23 Good      E     VS1      56.9    65   327  4.05  4.07  2.31 low       
 4  0.29 Premium   I     VS2      62.4    58   334  4.2   4.23  2.63 low       
 5  0.31 Good      J     SI2      63.3    58   335  4.34  4.35  2.75 low       
 6  0.24 Very Good J     VVS2     62.8    57   336  3.94  3.96  2.48 low       
 7  0.24 Very Good I     VVS1     62.3    57   336  3.95  3.98  2.47 low       
 8  0.26 Very Good H     SI1      61.9    55   337  4.07  4.11  2.53 low       
 9  0.22 Fair      E     VS2      65.1    61   337  3.87  3.78  2.49 low       
10  0.23 Very Good H     VS1      59.4    61   338  4     4.05  2.39 low       
# ℹ 990 more rows
# ℹ 1 more variable: price_cat2 <chr>
…
